Text mining, sentiment analysis, and visualization: Game of Thrones
…
Unnest into regular columns using tidyr::unnest()

Remove leading/trailing white space with
stringr::str_trim()

#Note: vi laver det til en data.frame så det bliver til en kolonne. så bruer vi 'mutat' til at lave en ny kolonne (hvor hver linje bliver en række i denne kolonne), og vi bruger /n til at indikere hvor linjerne skal dele. 
got_df <- data.frame(got_text) %>% 
  mutate(text_full = str_split(got_text, pattern = '\n')) %>% 
  unnest(text_full) %>% 
  mutate(text_full = str_trim(text_full)) 

got_df#her ser vi at der er 2 kolonner men 30.233 rækker, altså svarende til 30.233 linjer. 

## # A tibble: 30,233 × 2
##    got_text                                                            text_full
##    <chr>                                                               <chr>    
##  1 ""                                                                  ""       
##  2 "                  A GAME OF THRONES\n\n\n            Book One of … "A GAME …
##  3 "                  A GAME OF THRONES\n\n\n            Book One of … ""       
##  4 "                  A GAME OF THRONES\n\n\n            Book One of … ""       
##  5 "                  A GAME OF THRONES\n\n\n            Book One of … "Book On…
##  6 "                  A GAME OF THRONES\n\n\n            Book One of … ""       
##  7 "                  A GAME OF THRONES\n\n\n            Book One of … ""       
##  8 "                  A GAME OF THRONES\n\n\n            Book One of … "By Geor…
##  9 "                  A GAME OF THRONES\n\n\n            Book One of … "Content…
## 10 "                  A GAME OF THRONES\n\n\n            Book One of … "Maps"   
## # ℹ 30,223 more rows
…
Use tidytext::unnest_tokens() (which pulls from the
tokenizer) package, to split columns into tokens. We are
interested in words, so that’s the token we’ll use:

#vi tgaer dataframe og den nye kolonne vi har lavet 'text_full' og laver en ny kolonne kaldet 'word'. Nu er linjerne eksploderet til individuelle ord, i 'word' kolonnen.

got_tokens <- got_df %>% 
  unnest_tokens(word, text_full)

Note: Nu ser vi at der er kommet 297.814 rækker, istedet for 30.233
rækker, da hver rækker nu ikke længere udgør en linje, men et ord.

got_tokens 

## # A tibble: 297,814 × 2
##    got_text                                                                word 
##    <chr>                                                                   <chr>
##  1 "                  A GAME OF THRONES\n\n\n            Book One of A So… a    
##  2 "                  A GAME OF THRONES\n\n\n            Book One of A So… game 
##  3 "                  A GAME OF THRONES\n\n\n            Book One of A So… of   
##  4 "                  A GAME OF THRONES\n\n\n            Book One of A So… thro…
##  5 "                  A GAME OF THRONES\n\n\n            Book One of A So… book 
##  6 "                  A GAME OF THRONES\n\n\n            Book One of A So… one  
##  7 "                  A GAME OF THRONES\n\n\n            Book One of A So… of   
##  8 "                  A GAME OF THRONES\n\n\n            Book One of A So… a    
##  9 "                  A GAME OF THRONES\n\n\n            Book One of A So… song 
## 10 "                  A GAME OF THRONES\n\n\n            Book One of A So… of   
## # ℹ 297,804 more rows

# See how this differs from `ipcc_df`
# Each word has its own row!

Let’s count the words! Note: her ser vi også hvilke ord der skal i
stopordslisten

got_wc <- got_tokens %>% 
  count(word) %>% 
  arrange(-n)

got_wc

## # A tibble: 11,826 × 2
##    word      n
##    <chr> <int>
##  1 the   17988
##  2 and    8997
##  3 to     6640
##  4 a      6461
##  5 of     6200
##  6 he     5166
##  7 his    5161
##  8 was    3904
##  9 her    3659
## 10 you    3267
## # ℹ 11,816 more rows
…
Remove stop words:

See ?stop_words and View(stop_words)to look
at documentation for stop words lexicons.

We will remove stop words using
tidyr::anti_join():

#her ser vi hvilke stopord der i forvejen er i r
?stop_words

#vi kan se hvordan det ser ud
stop_words

## # A tibble: 1,149 × 2
##    word        lexicon
##    <chr>       <chr>  
##  1 a           SMART  
##  2 a's         SMART  
##  3 able        SMART  
##  4 about       SMART  
##  5 above       SMART  
##  6 according   SMART  
##  7 accordingly SMART  
##  8 across      SMART  
##  9 actually    SMART  
## 10 after       SMART  
## # ℹ 1,139 more rows

#hvis man gerne vil fjerne et ord fra stopordslisten, så skal man fjerne en række,filter(words= det ord man vil fjerne)

got_stop <- got_tokens %>% 
  anti_join(stop_words) %>% 
  select(-got_text)

got_stop

## # A tibble: 118,281 × 1
##    word    
##    <chr>   
##  1 game    
##  2 thrones 
##  3 book    
##  4 song    
##  5 ice     
##  6 fire    
##  7 george  
##  8 r.r     
##  9 martin  
## 10 contents
## # ℹ 118,271 more rows

Now check the counts again:

got_swc <- got_stop %>% 
  count(word) %>% 
  arrange(-n)

got_swc

## # A tibble: 11,295 × 2
##    word       n
##    <chr>  <int>
##  1 lord    1341
##  2 ser     1023
##  3 jon      787
##  4 ned      743
##  5 tyrion   591
##  6 eyes     567
##  7 hand     567
##  8 king     542
##  9 father   512
## 10 told     504
## # ℹ 11,285 more rows
…
# This code will filter out numbers by asking:
# If you convert to as.numeric, is it NA (meaning those words)?
# If it IS NA (is.na), then keep it (so all words are kept)
# Anything that is converted to a number is removed

#her tager vi dataframe der er en kolonne, og så siger vi filter de dele der as converted to numerict is NA´s (as.numeric).
#vi får kun de ikke numeriske værdier
got_no_numeric <- got_stop %>% 
  filter(is.na(as.numeric(word)))

got_no_numeric

## # A tibble: 118,175 × 1
##    word    
##    <chr>   
##  1 game    
##  2 thrones 
##  3 book    
##  4 song    
##  5 ice     
##  6 fire    
##  7 george  
##  8 r.r     
##  9 martin  
## 10 contents
## # ℹ 118,165 more rows
…
length(unique(got_no_numeric$word))

## [1] 11209

# We probably don't want to include them all in a word cloud. Let's filter to only include the top 100 most frequent?
#head funktionen giver normalt de først 6 rækker, men her siger vi at vi vil have de første 100 rækker
got_top100 <- got_no_numeric %>% 
  count(word) %>% 
  arrange(-n) %>% 
  head(100)

got_top100

## # A tibble: 100 × 2
##    word       n
##    <chr>  <int>
##  1 lord    1341
##  2 ser     1023
##  3 jon      787
##  4 ned      743
##  5 tyrion   591
##  6 eyes     567
##  7 hand     567
##  8 king     542
##  9 father   512
## 10 told     504
## # ℹ 90 more rows
…
Let’s explore the sentiment lexicons. “bing” is included, other
lexicons (“afinn”, “nrc”, “loughran”) you’ll be prompted to
download.

WARNING: These collections include very offensive
words. I urge you to not look at them in class.

“afinn”: Words ranked from -5 (very negative) to +5 (very
positive)

get_sentiments(lexicon="afinn")

## # A tibble: 2,477 × 2
##    word       value
##    <chr>      <dbl>
##  1 abandon       -2
##  2 abandoned     -2
##  3 abandons      -2
##  4 abducted      -2
##  5 abduction     -2
##  6 abductions    -2
##  7 abhor         -3
##  8 abhorred      -3
##  9 abhorrent     -3
## 10 abhors        -3
## # ℹ 2,467 more rows

# Note: may be prompted to download (yes)

# Let's look at the pretty positive words:
afinn_pos <- get_sentiments("afinn") %>% 
  filter(value %in% c(3,4,5))

# Do not look at negative words in class. 
afinn_pos

## # A tibble: 222 × 2
##    word         value
##    <chr>        <dbl>
##  1 admire           3
##  2 admired          3
##  3 admires          3
##  4 admiring         3
##  5 adorable         3
##  6 adore            3
##  7 adored           3
##  8 adores           3
##  9 affection        3
## 10 affectionate     3
## # ℹ 212 more rows

bing: binary, “positive” or “negative”

get_sentiments(lexicon = "bing")

## # A tibble: 6,786 × 2
##    word        sentiment
##    <chr>       <chr>    
##  1 2-faces     negative 
##  2 abnormal    negative 
##  3 abolish     negative 
##  4 abominable  negative 
##  5 abominably  negative 
##  6 abominate   negative 
##  7 abomination negative 
##  8 abort       negative 
##  9 aborted     negative 
## 10 aborts      negative 
## # ℹ 6,776 more rows

nrc:https://saifmohammad.com/WebPages/NRC-Emotion-Lexicon.htm
Includes bins for 8 emotions (anger, anticipation, disgust, fear, joy,
sadness, surprise, trust) and positive / negative.

Citation for NRC lexicon: Crowdsourcing a
Word-Emotion Association Lexicon, Saif Mohammad and Peter Turney,
Computational Intelligence, 29 (3), 436-465, 2013.

Now nrc:

get_sentiments(lexicon = "nrc")

## # A tibble: 13,872 × 2
##    word        sentiment
##    <chr>       <chr>    
##  1 abacus      trust    
##  2 abandon     fear     
##  3 abandon     negative 
##  4 abandon     sadness  
##  5 abandoned   anger    
##  6 abandoned   fear     
##  7 abandoned   negative 
##  8 abandoned   sadness  
##  9 abandonment anger    
## 10 abandonment fear     
## # ℹ 13,862 more rows
…
## $title
## [1] "Kategorisering af ord i sentimentalværdier"
## 
## attr(,"class")
## [1] "labels"

Investigate some of the words in a bit more depth:

# What are these '2' words?
got_afinn2 <- got_afinn %>% 
  filter(value == 2)

got_afinn2

## # A tibble: 2,405 × 2
##    word     value
##    <chr>    <dbl>
##  1 smile        2
##  2 fine         2
##  3 glory        2
##  4 hope         2
##  5 smiled       2
##  6 care         2
##  7 strength     2
##  8 peaceful     2
##  9 smile        2
## 10 smile        2
## # ℹ 2,395 more rows

got_afinn2 %>% 
  distinct(word)

## # A tibble: 201 × 1
##    word     
##    <chr>    
##  1 smile    
##  2 fine     
##  3 glory    
##  4 hope     
##  5 smiled   
##  6 care     
##  7 strength 
##  8 peaceful 
##  9 honor    
## 10 carefully
## # ℹ 191 more rows
…
